########################################
# Events for Theocracy
#
# written by Johan Andersson
########################################

namespace = theocracy

country_event = {
	id = theocracy.1
	title = theocracy.1.t
	desc = theocracy.1.desc
	picture = RELIGION_eventPicture

	is_triggered_only = yes

	trigger = {
		NOT = { government = papal_government }
		NOT = { has_country_flag = in_theocracy_heir_selection }
	}

	immediate = {
		hidden_effect = {
			set_country_flag = in_theocracy_heir_selection
			
			clr_country_flag = theo_local_noble_flag
			clr_country_flag = theo_foreign_noble_flag
			clr_country_flag = theo_merchants_son_flag
			clr_country_flag = theo_talented_theologian_flag
			clr_country_flag = theo_local_preacher_flag
			clr_country_flag = theo_papal_protege_flag
			clr_country_flag = theo_imam_khatib_flag
			
			#Local Noble,etc:
			if = {
				limit = {
					any_owned_province = {
						has_estate = estate_nobles
					}
				}
				random_owned_province = {
					limit = { has_estate = estate_nobles }
					save_event_target_as = noble_province
				}
			}
			#Local Noble:
			if = {
				limit = {
					any_owned_province = {
						has_estate = estate_nobles
					}
				}
				random_owned_province = {
					limit = { has_estate = estate_nobles }
					save_event_target_as = noble_province
				}
			}
			if = {
				limit = {
					any_owned_province = {
						has_estate = estate_burghers
					}
				}
				random_owned_province = {
					limit = { has_estate = estate_burghers }
					save_event_target_as = burgher_province
				}
			}
			if = {
				limit = {
					any_owned_province = {
						has_estate = estate_church
					}
				}
				random_owned_province = {
					limit = { has_estate = estate_church }
					save_event_target_as = church_province
				}
			}
			#Papal Protoge:
			random_country = {
				limit = {
					OR = {
						tag = A85
						culture_group = A85
					}
				}
				save_event_target_as = papal_protoge_country
			}
			
		}
	}
	option = {
		name = theocracy.1.a		# A Local Noble

		
		
		
		
		if = {
			limit = {
				has_dlc = "The Cossacks"
				has_estate = estate_nobles
			}
			add_estate_loyalty = {
				estate = estate_nobles
				loyalty = 15
			}
		}
		if = {
			limit = {
				has_dlc = "The Cossacks"
				has_estate = estate_church
			}
			add_estate_loyalty = {
				estate = estate_church
				loyalty = -15
			}
		}
		set_country_flag = theo_local_noble_flag # USED IN DEVOTION.TXT
		if = {
			limit = {
				has_saved_event_target = noble_province
			}
			define_heir = {
				age = 35
				hidden = yes
				culture = event_target:noble_province
			}
		}
		else = {
			define_heir = {
				age = 35
				hidden = yes
			}
		}
		add_devotion = -5
		add_prestige = 10
		clr_country_flag = in_theocracy_heir_selection
		custom_tooltip = theocracy.1.tt
	}
		
	option = {
		name = theocracy.1.b		# A Foreign Noble
		trigger = {
			any_neighbor_country = {
				government = monarchy
				has_regency = no
				religion = ROOT
			}
		}
		if = {
			limit = {
				has_dlc = "The Cossacks"
				has_estate = estate_nobles
			}
			add_estate_loyalty = {
				estate = estate_nobles
				loyalty = 10
			}
		}
		if = {
			limit = {
				has_dlc = "The Cossacks"
				has_estate = estate_church
			}
			add_estate_loyalty = {
				estate = estate_church
				loyalty = -10
			}
		}		
		set_country_flag = theo_foreign_noble_flag # USED IN DEVOTION.TXT
		random_neighbor_country = { 
			limit = {
				government = monarchy
				has_regency = no
				religion = ROOT
			}
			ROOT = { 
				define_heir = { 
					dynasty = PREV 
					age = 35
					culture = PREV
					hidden = yes

				} 
			} 
			add_opinion = { who = ROOT modifier = opinion_theocracy_noble }
		}
		clr_country_flag = in_theocracy_heir_selection
		custom_tooltip = theocracy.1.tt
	}

	option = {
		name = theocracy.1.c		# A Merchant's Son

		if = {
			limit = {
				has_dlc = "The Cossacks"
				has_estate = estate_burghers
			}
			add_estate_loyalty = {
				estate = estate_burghers
				loyalty = 15
			}
		}
		if = {
			limit = {
				has_dlc = "The Cossacks"
				has_estate = estate_church
			}
			add_estate_loyalty = {
				estate = estate_church
				loyalty = -15
			}
		}
		set_country_flag = theo_merchants_son_flag # USED IN DEVOTION.TXT
		
		if = {
			limit = {
				has_saved_event_target = burgher_province
			}
			define_heir = {
				age = 35
				hidden = yes
				culture = event_target:burgher_province
			}
		}
		else = {
			define_heir = {
				age = 35
				hidden = yes
			}
		}
		add_years_of_income = 0.35
		add_devotion = -5
		clr_country_flag = in_theocracy_heir_selection
		custom_tooltip = theocracy.1.tt
	}

	option = {
		name = theocracy.1.e		# A Talented Theologian

		if = {
			limit = {
				has_dlc = "The Cossacks"
				has_estate = estate_church
			}
			add_estate_loyalty = {
				estate = estate_church
				loyalty = 15
			}
		}
		if = {
			limit = {
				has_dlc = "The Cossacks"
				has_estate = estate_nobles
			}
			add_estate_loyalty = {
				estate = estate_burghers
				loyalty = -15
			}
		}
		set_country_flag = theo_talented_theologian_flag # USED IN DEVOTION.TXT
		if = {
			limit = {
				has_saved_event_target = church_province
			}
			define_heir = {
				age = 35
				hidden = yes
				culture = event_target:church_province
			}
		}
		else = {
			define_heir = {
				age = 35
				hidden = yes
			}
		}
		add_devotion = 5
		clr_country_flag = in_theocracy_heir_selection
		custom_tooltip = theocracy.1.tt
	}
	option = {
		name = theocracy.1.f		# A Local Preacher
		trigger = {
			NOT = {
				religion_group = muslim
			}
		}

		if = {
			limit = {
				has_dlc = "The Cossacks"
				has_estate = estate_church
			}
			add_estate_loyalty = {
				estate = estate_church
				loyalty = 15
			}
		}
		if = {
			limit = {
				has_dlc = "The Cossacks"
				has_estate = estate_nobles
			}
			add_estate_loyalty = {
				estate = estate_nobles
				loyalty = -15
			}

			
			
			
		}
		set_country_flag = theo_local_preacher_flag # USED IN DEVOTION.TXT
		if = {
			limit = {
				has_saved_event_target = church_province
			}
			define_heir = {
				age = 35
				hidden = yes
				culture = event_target:church_province
			}
		}
		else = {
			define_heir = {
				age = 35
				hidden = yes
			}
		}
		add_devotion = 10
		add_prestige = -5
		clr_country_flag = in_theocracy_heir_selection
		custom_tooltip = theocracy.1.tt
	}
	option = {
		name = theocracy.1.d		# A Papal Protege
		trigger = {
			religion = catholic
		}
		if = {
			limit = {
				has_dlc = "The Cossacks"
				has_estate = estate_church
			}
			add_estate_loyalty = {
				estate = estate_church
				loyalty = 15
			}
		}
		if = {
			limit = {
				has_dlc = "The Cossacks"
				has_estate = estate_nobles
			}
			add_estate_loyalty = {
				estate = estate_nobles
				loyalty = -10
			}
		}
		if = {
			limit = {
				has_dlc = "The Cossacks"
				has_estate = estate_burghers
			}
			add_estate_loyalty = {
				estate = estate_burghers
				loyalty = -10
			}
		}
		set_country_flag = theo_papal_protege_flag # USED IN DEVOTION.TXT
		if = {
			limit = {
				has_saved_event_target = papal_protoge_country
			}
			define_heir = {
				age = 35
				culture = event_target:papal_protoge_country
				hidden = yes
			}
		}
		else = {
			define_heir = {
				age = 35
				hidden = yes
			}
		}
		add_papal_influence = 10
		clr_country_flag = in_theocracy_heir_selection
		custom_tooltip = theocracy.1.tt
	}
	option = {
		name = theocracy.1.g		# A Local Imam Khatib
		trigger = {
			religion_group = muslim
		}
		set_country_flag = theo_imam_khatib_flag # USED IN DEVOTION.TXT
		if = {
			limit = {
				has_dlc = "The Cossacks"
				has_estate = estate_church
			}
			add_estate_loyalty = {
				estate = estate_church
				loyalty = 15
			}
		}
		if = {
			limit = {
				has_dlc = "The Cossacks"
				has_estate = estate_nobles
			}
			add_estate_loyalty = {
				estate = estate_nobles
				loyalty = -15
			}
		}		
		define_heir = {
			age = 35
			hidden = yes
		}
		add_devotion = 10
		add_prestige = -10
		clr_country_flag = in_theocracy_heir_selection
		custom_tooltip = theocracy.1.tt
	}
	option = {
		name = theocracy.1.h		# An Influential Reformer
		trigger = {
			OR = {
				religion = reformed
				religion = protestant
			}
		}
		set_country_flag = theo_influential_reformer_flag # USED IN DEVOTION.TXT
		if = {
			limit = {
				has_dlc = "The Cossacks"
				has_estate = estate_burghers
			}
			add_estate_loyalty = {
				estate = estate_burghers
				loyalty = 10
			}
		}		
		if = {
			limit = {
				has_dlc = "The Cossacks"
				has_estate = estate_church
			}
			add_estate_loyalty = {
				estate = estate_church
				loyalty = -10
			}
		}
		define_heir = {
			age = 35
			hidden = yes
		}
		if = { 
			limit = { religion = reformed }
			add_fervor = 10
		}
		if = { 
			limit = { religion = protestant }
			add_church_power = 10
		}
		add_prestige = -10
		clr_country_flag = in_theocracy_heir_selection
		custom_tooltip = theocracy.1.tt
	}
}

# Too Much Religious Freedom
country_event = {
	id = theocracy.100
	title = "EVTNAME1090"
	desc = "EVTDESC1090"
	picture = RELIGION_eventPicture

	trigger = {
		NOT = { has_country_flag = religious_restrictions }
		government = theocratic_government
		any_owned_province = { has_owner_religion = no }
		NOT = { any_owned_province = { has_missionary = yes } }
		NOT = { has_country_modifier = religious_tolerance }
		NOT = { has_country_modifier = religious_intolerance }
	}

	mean_time_to_happen = {
		months = 180

		modifier = {
			factor = 0.9
			is_defender_of_faith = yes
		}
		modifier = {
			factor = 0.9
			has_idea = divine_supremacy
		}
		modifier = {
			factor = 0.9
			advisor = theologian
		}
		modifier = {
			factor = 0.9
			theologian = 3
		}
	}

	option = {
		name = "EVTOPTA1090"		# Take his advice under consideration
		ai_chance = { factor = 55 }
		if = {
			limit = {
				has_dlc = "The Cossacks"
				has_estate = estate_church
				has_estate = estate_dhimmi
			}
			add_estate_loyalty = {
				estate = estate_church
				loyalty = 10
			}
		}
		if = {
			limit = {
				has_dlc = "The Cossacks"
				has_estate = estate_dhimmi
			}
			add_estate_loyalty = {
				estate = estate_dhimmi
				loyalty = -10
			}
		}
		set_country_flag = religious_restrictions
		add_country_modifier = {
			name = "religious_restriction"
			duration = 730
		}
	}
	option = {
		name = "EVTOPTB1090"		# It's not of any consequence
		ai_chance = { factor = 45 }
		set_country_flag = religious_restrictions
		if = {
			limit = {
				has_dlc = "The Cossacks"
				has_estate = estate_church
				has_estate = estate_dhimmi
			}
			add_estate_loyalty = {
				estate = estate_church
				loyalty = -10
			}
		}
		if = {
			limit = {
				has_dlc = "The Cossacks"
				has_estate = estate_dhimmi
			}
			add_estate_loyalty = {
				estate = estate_dhimmi
				loyalty = 10
			}
		}
		random = {
			chance = 40
			random_owned_province = {
				limit = { has_owner_religion = no }
				create_revolt = 1
			}
		}				
	}
}

# Problematic Relations
country_event = {
	id =  theocracy.101
	title = "EVTNAME1091"
	desc = "EVTDESC1091"
	picture = DIPLOMACY_eventPicture

	trigger = {
		NOT = { has_country_flag = problematic_relations }
		government = theocratic_government
		any_neighbor_country = {
			NOT = { has_opinion = { who = ROOT value = -50 } }
			NOT = { religion = ROOT }
		}
	}

	mean_time_to_happen = {
		months = 180

		modifier = {
			factor = 0.9
			is_defender_of_faith = yes
		}
		modifier = {
			factor = 0.9
			has_idea = divine_supremacy
		}
		modifier = {
			factor = 0.9
			advisor = theologian
		}
		modifier = {
			factor = 0.9
			theologian = 3
		}
		modifier = {
			factor = 0.9
			mil= 7
		}
		modifier = {
			factor = 0.9
			mil= 8
		}
		modifier = {
			factor = 0.9
			mil= 9
		}
		modifier = {
			factor = 1.2
			NOT = { mil= 4 }
		}
	}
	
	option = {
		name = "EVTOPTA1091" # Make your opinion clear to them
		ai_chance = { factor = 45 }
		set_country_flag = problematic_relations
		random_country = {
			limit = {
				is_neighbor_of = ROOT
				NOT = { religion = ROOT }
				NOT = { has_opinion = { who = ROOT value = -50 } }
			}
			add_opinion = { who = ROOT modifier = opinion_forceful_conversion }
		}	
		add_papal_influence = -10
	}
	option = {
		name = "EVTOPTB1091" # Make preparations for a future attack
		ai_chance = { factor = 55 }
		set_country_flag = problematic_relations
		add_army_tradition = 10
		add_treasury = -40
	}
}
